# gmm-acc-stats-ali exp/mono/38.mdl "ark,s,cs:apply-cmvn  --utt2spk=ark:data/train.1k/split4/3/utt2spk scp:data/train.1k/split4/3/cmvn.scp scp:data/train.1k/split4/3/feats.scp ark:- | add-deltas ark:- ark:- |" "ark:gunzip -c exp/mono/ali.3.gz|" exp/mono/38.3.acc 
# Started at Wed Oct 19 10:44:04 EDT 2016
#
gmm-acc-stats-ali exp/mono/38.mdl 'ark,s,cs:apply-cmvn  --utt2spk=ark:data/train.1k/split4/3/utt2spk scp:data/train.1k/split4/3/cmvn.scp scp:data/train.1k/split4/3/feats.scp ark:- | add-deltas ark:- ark:- |' 'ark:gunzip -c exp/mono/ali.3.gz|' exp/mono/38.3.acc 
add-deltas ark:- ark:- 
apply-cmvn --utt2spk=ark:data/train.1k/split4/3/utt2spk scp:data/train.1k/split4/3/cmvn.scp scp:data/train.1k/split4/3/feats.scp ark:- 
WARNING (gmm-acc-stats-ali:main():gmm-acc-stats-ali.cc:79) No alignment for utterance GUK_m019nxx0_028
WARNING (gmm-acc-stats-ali:main():gmm-acc-stats-ali.cc:79) No alignment for utterance HAH_g075axx0_007
WARNING (gmm-acc-stats-ali:main():gmm-acc-stats-ali.cc:79) No alignment for utterance HET_m079nxx0_006
LOG (gmm-acc-stats-ali:main():gmm-acc-stats-ali.cc:105) Processed 50 utterances; for utterance HW3_n011kxx0_014 avg. like is -89.368 over 305 frames.
LOG (gmm-acc-stats-ali:main():gmm-acc-stats-ali.cc:105) Processed 100 utterances; for utterance JKO_m135nxx0_020 avg. like is -101.146 over 2020 frames.
LOG (gmm-acc-stats-ali:main():gmm-acc-stats-ali.cc:105) Processed 150 utterances; for utterance KES_m050nxx0_018 avg. like is -101.498 over 499 frames.
WARNING (gmm-acc-stats-ali:main():gmm-acc-stats-ali.cc:79) No alignment for utterance MAK_g285axx0_021
LOG (gmm-acc-stats-ali:main():gmm-acc-stats-ali.cc:105) Processed 200 utterances; for utterance MEM_m116nxx0_006 avg. like is -103.616 over 753 frames.
LOG (apply-cmvn:main():apply-cmvn.cc:146) Applied cepstral mean normalization to 252 utterances, errors on 0
LOG (gmm-acc-stats-ali:main():gmm-acc-stats-ali.cc:112) Done 248 files, 4 with errors.
LOG (gmm-acc-stats-ali:main():gmm-acc-stats-ali.cc:115) Overall avg like per frame (Gaussian only) = -98.5246 over 210579 frames.
LOG (gmm-acc-stats-ali:main():gmm-acc-stats-ali.cc:123) Written accs.
# Accounting: time=2 threads=1
# Ended (code 0) at Wed Oct 19 10:44:06 EDT 2016, elapsed time 2 seconds
