# gmm-acc-stats-ali exp/mono/23.mdl "ark,s,cs:apply-cmvn  --utt2spk=ark:data/train.1k/split4/2/utt2spk scp:data/train.1k/split4/2/cmvn.scp scp:data/train.1k/split4/2/feats.scp ark:- | add-deltas ark:- ark:- |" "ark:gunzip -c exp/mono/ali.2.gz|" exp/mono/23.2.acc 
# Started at Wed Oct 19 10:41:55 EDT 2016
#
gmm-acc-stats-ali exp/mono/23.mdl 'ark,s,cs:apply-cmvn  --utt2spk=ark:data/train.1k/split4/2/utt2spk scp:data/train.1k/split4/2/cmvn.scp scp:data/train.1k/split4/2/feats.scp ark:- | add-deltas ark:- ark:- |' 'ark:gunzip -c exp/mono/ali.2.gz|' exp/mono/23.2.acc 
apply-cmvn --utt2spk=ark:data/train.1k/split4/2/utt2spk scp:data/train.1k/split4/2/cmvn.scp scp:data/train.1k/split4/2/feats.scp ark:- 
add-deltas ark:- ark:- 
WARNING (gmm-acc-stats-ali:main():gmm-acc-stats-ali.cc:79) No alignment for utterance BCM_m217dxx0_007
WARNING (gmm-acc-stats-ali:main():gmm-acc-stats-ali.cc:79) No alignment for utterance BCN_m218dxx0_003
LOG (gmm-acc-stats-ali:main():gmm-acc-stats-ali.cc:105) Processed 50 utterances; for utterance BCY_m229dxx0_001 avg. like is -100.784 over 2494 frames.
LOG (gmm-acc-stats-ali:main():gmm-acc-stats-ali.cc:105) Processed 100 utterances; for utterance BEK_g284axx0_008 avg. like is -101.872 over 145 frames.
LOG (gmm-acc-stats-ali:main():gmm-acc-stats-ali.cc:105) Processed 150 utterances; for utterance BS1_n001kxx0_004 avg. like is -96.4337 over 484 frames.
LOG (gmm-acc-stats-ali:main():gmm-acc-stats-ali.cc:105) Processed 200 utterances; for utterance DNL_m108dxx0_017 avg. like is -99.2822 over 520 frames.
LOG (apply-cmvn:main():apply-cmvn.cc:146) Applied cepstral mean normalization to 249 utterances, errors on 0
LOG (gmm-acc-stats-ali:main():gmm-acc-stats-ali.cc:112) Done 247 files, 2 with errors.
LOG (gmm-acc-stats-ali:main():gmm-acc-stats-ali.cc:115) Overall avg like per frame (Gaussian only) = -99.936 over 217800 frames.
LOG (gmm-acc-stats-ali:main():gmm-acc-stats-ali.cc:123) Written accs.
# Accounting: time=2 threads=1
# Ended (code 0) at Wed Oct 19 10:41:57 EDT 2016, elapsed time 2 seconds
