# compile-train-graphs exp/mono/tree exp/mono/0.mdl data/lang/L.fst "ark:sym2int.pl --map-oov 1 -f 2- data/lang/words.txt < data/train.1k/split4/3/text|" "ark:|gzip -c >exp/mono/fsts.3.gz" 
# Started at Wed Oct 19 10:32:16 EDT 2016
#
compile-train-graphs exp/mono/tree exp/mono/0.mdl data/lang/L.fst 'ark:sym2int.pl --map-oov 1 -f 2- data/lang/words.txt < data/train.1k/split4/3/text|' 'ark:|gzip -c >exp/mono/fsts.3.gz' 
LOG (compile-train-graphs:main():compile-train-graphs.cc:145) compile-train-graphs: succeeded for 252 graphs, failed for 0
# Accounting: time=6 threads=1
# Ended (code 0) at Wed Oct 19 10:32:22 EDT 2016, elapsed time 6 seconds
