<eps> 0
sil 1
sil_B 2
sil_E 3
sil_I 4
sil_S 5
a:_B 6
a:_E 7
a:_I 8
a:_S 9
a_B 10
a_E 11
a_I 12
a_S 13
e_B 14
e_E 15
e_I 16
e_S 17
e:_B 18
e:_E 19
e:_I 20
e:_S 21
E_B 22
E_E 23
E_I 24
E_S 25
i:_B 26
i:_E 27
i:_I 28
i:_S 29
i_B 30
i_E 31
i_I 32
i_S 33
I_B 34
I_E 35
I_I 36
I_S 37
o:_B 38
o:_E 39
o:_I 40
o:_S 41
o_B 42
o_E 43
o_I 44
o_S 45
O_B 46
O_E 47
O_I 48
O_S 49
u:_B 50
u:_E 51
u:_I 52
u:_S 53
u_B 54
u_E 55
u_I 56
u_S 57
U_B 58
U_E 59
U_I 60
U_S 61
y:_B 62
y:_E 63
y:_I 64
y:_S 65
y_B 66
y_E 67
y_I 68
y_S 69
Y_B 70
Y_E 71
Y_I 72
Y_S 73
2:_B 74
2:_E 75
2:_I 76
2:_S 77
2_B 78
2_E 79
2_I 80
2_S 81
9_B 82
9_E 83
9_I 84
9_S 85
a~_B 86
a~_E 87
a~_I 88
a~_S 89
E~_B 90
E~_E 91
E~_I 92
E~_S 93
O~_B 94
O~_E 95
O~_I 96
O~_S 97
9~_B 98
9~_E 99
9~_I 100
9~_S 101
aI_B 102
aI_E 103
aI_I 104
aI_S 105
aU_B 106
aU_E 107
aU_I 108
aU_S 109
OY_B 110
OY_E 111
OY_I 112
OY_S 113
@_B 114
@_E 115
@_I 116
@_S 117
6_B 118
6_E 119
6_I 120
6_S 121
'a:_B 122
'a:_E 123
'a:_I 124
'a:_S 125
'a_B 126
'a_E 127
'a_I 128
'a_S 129
'e_B 130
'e_E 131
'e_I 132
'e_S 133
'e:_B 134
'e:_E 135
'e:_I 136
'e:_S 137
'E_B 138
'E_E 139
'E_I 140
'E_S 141
'i:_B 142
'i:_E 143
'i:_I 144
'i:_S 145
'i_B 146
'i_E 147
'i_I 148
'i_S 149
'I_B 150
'I_E 151
'I_I 152
'I_S 153
'o:_B 154
'o:_E 155
'o:_I 156
'o:_S 157
'o_B 158
'o_E 159
'o_I 160
'o_S 161
'O_B 162
'O_E 163
'O_I 164
'O_S 165
'u:_B 166
'u:_E 167
'u:_I 168
'u:_S 169
'u_B 170
'u_E 171
'u_I 172
'u_S 173
'U_B 174
'U_E 175
'U_I 176
'U_S 177
'y:_B 178
'y:_E 179
'y:_I 180
'y:_S 181
'y_B 182
'y_E 183
'y_I 184
'y_S 185
'Y_B 186
'Y_E 187
'Y_I 188
'Y_S 189
'2:_B 190
'2:_E 191
'2:_I 192
'2:_S 193
'2_B 194
'2_E 195
'2_I 196
'2_S 197
'9_B 198
'9_E 199
'9_I 200
'9_S 201
'a~_B 202
'a~_E 203
'a~_I 204
'a~_S 205
'E~_B 206
'E~_E 207
'E~_I 208
'E~_S 209
'O~_B 210
'O~_E 211
'O~_I 212
'O~_S 213
'9~_B 214
'9~_E 215
'9~_I 216
'9~_S 217
'aI_B 218
'aI_E 219
'aI_I 220
'aI_S 221
'aU_B 222
'aU_E 223
'aU_I 224
'aU_S 225
'OY_B 226
'OY_E 227
'OY_I 228
'OY_S 229
'@_B 230
'@_E 231
'@_I 232
'@_S 233
'6_B 234
'6_E 235
'6_I 236
'6_S 237
"a:_B 238
"a:_E 239
"a:_I 240
"a:_S 241
"a_B 242
"a_E 243
"a_I 244
"a_S 245
"e_B 246
"e_E 247
"e_I 248
"e_S 249
"e:_B 250
"e:_E 251
"e:_I 252
"e:_S 253
"E_B 254
"E_E 255
"E_I 256
"E_S 257
"i:_B 258
"i:_E 259
"i:_I 260
"i:_S 261
"i_B 262
"i_E 263
"i_I 264
"i_S 265
"I_B 266
"I_E 267
"I_I 268
"I_S 269
"o:_B 270
"o:_E 271
"o:_I 272
"o:_S 273
"o_B 274
"o_E 275
"o_I 276
"o_S 277
"O_B 278
"O_E 279
"O_I 280
"O_S 281
"u:_B 282
"u:_E 283
"u:_I 284
"u:_S 285
"u_B 286
"u_E 287
"u_I 288
"u_S 289
"U_B 290
"U_E 291
"U_I 292
"U_S 293
"y:_B 294
"y:_E 295
"y:_I 296
"y:_S 297
"y_B 298
"y_E 299
"y_I 300
"y_S 301
"Y_B 302
"Y_E 303
"Y_I 304
"Y_S 305
"2:_B 306
"2:_E 307
"2:_I 308
"2:_S 309
"2_B 310
"2_E 311
"2_I 312
"2_S 313
"9_B 314
"9_E 315
"9_I 316
"9_S 317
"a~_B 318
"a~_E 319
"a~_I 320
"a~_S 321
"E~_B 322
"E~_E 323
"E~_I 324
"E~_S 325
"O~_B 326
"O~_E 327
"O~_I 328
"O~_S 329
"9~_B 330
"9~_E 331
"9~_I 332
"9~_S 333
"aI_B 334
"aI_E 335
"aI_I 336
"aI_S 337
"aU_B 338
"aU_E 339
"aU_I 340
"aU_S 341
"OY_B 342
"OY_E 343
"OY_I 344
"OY_S 345
"@_B 346
"@_E 347
"@_I 348
"@_S 349
"6_B 350
"6_E 351
"6_I 352
"6_S 353
z_B 354
z_E 355
z_I 356
z_S 357
S_B 358
S_E 359
S_I 360
S_S 361
Z_B 362
Z_E 363
Z_I 364
Z_S 365
C_B 366
C_E 367
C_I 368
C_S 369
x_B 370
x_E 371
x_I 372
x_S 373
N_B 374
N_E 375
N_I 376
N_S 377
Q_B 378
Q_E 379
Q_I 380
Q_S 381
b_B 382
b_E 383
b_I 384
b_S 385
d_B 386
d_E 387
d_I 388
d_S 389
f_B 390
f_E 391
f_I 392
f_S 393
g_B 394
g_E 395
g_I 396
g_S 397
h_B 398
h_E 399
h_I 400
h_S 401
j_B 402
j_E 403
j_I 404
j_S 405
k_B 406
k_E 407
k_I 408
k_S 409
l_B 410
l_E 411
l_I 412
l_S 413
m_B 414
m_E 415
m_I 416
m_S 417
n_B 418
n_E 419
n_I 420
n_S 421
p_B 422
p_E 423
p_I 424
p_S 425
r_B 426
r_E 427
r_I 428
r_S 429
s_B 430
s_E 431
s_I 432
s_S 433
t_B 434
t_E 435
t_I 436
t_S 437
v_B 438
v_E 439
v_I 440
v_S 441
T_B 442
T_E 443
T_I 444
T_S 445
w_B 446
w_E 447
w_I 448
w_S 449
<usb>_B 450
<usb>_E 451
<usb>_I 452
<usb>_S 453
#0 454
#1 455
#2 456
#3 457
#4 458
#5 459
